"Probenkennung";"Fe-Ni_-20_3"
"Bezeichnung der Unterserie";""
"Durchmesser";5,91;"mm"
"Parallele Probenlšnge";35,99;"mm"
"Standardkraft";"Dehnung";"Standardweg"
"MPa";"%";"mm"
5,12423;0;0
25,2048;0,00984959;0,0024624
52,7796;0,0248064;0,00620159
80,8027;0,0404927;0,0101232
107,577;0,0576383;0,0144096
136,176;0,0777023;0,0194256
164,488;0,0995903;0,0248976
192,255;0,124032;0,031008
218,997;0,149933;0,0374832
244,17;0,180941;0,0452351
266,62;0,21888;0,0547199
284,843;0,269222;0,0673055
298,487;0,342547;0,0856367
306,813;0,464025;0,116006
310,593;0,610674;0,152669
312,866;0,747109;0,186777
314,82;0,881356;0,220339
316,806;1,03165;0,257913
318,887;1,17794;0,294484
321,161;1,32094;0,330235
323,243;1,45737;0,364344
326,029;1,62482;0,406204
328,303;1,75724;0,43931
330,641;1,88091;0,470227
333,107;2,01625;0,504062
335,445;2,14794;0,536985
337,655;2,28;0,569999
340,281;2,41278;0,603196
342,491;2,53755;0,634386
344,989;2,66231;0,665577
347,263;2,78597;0,696494
349,377;2,90855;0,727137
351,875;3,04352;0,760881
354,661;3,19273;0,798181
356,999;3,32332;0,830831
359,337;3,46268;0,865669
361,675;3,59656;0,89914
364,077;3,72752;0,93188
366,254;3,85557;0,963892
368,464;3,98799;0,996997
370,834;4,12625;1,03156
372,916;4,24481;1,0612
374,741;4,36701;1,09175
376,887;4,49615;1,12404
378,841;4,61654;1,15413
380,602;4,73948;1,18487
382,78;4,88394;1,22098
384,798;5,0138;1,25345
386,655;5,14003;1,28501
388,449;5,26479;1,3162
390,274;5,39283;1,34821
392,004;5,51613;1,37903
393,861;5,65038;1,41259
395,687;5,79229;1,44807
397,448;5,92179;1,48045
399,306;6,05093;1,51273
401,067;6,18992;1,54748
402,637;6,31979;1,57995
404,462;6,45184;1,61296
405,935;6,59083;1,64771
407,825;6,7331;1,68328
409,17;6,86005;1,71501
410,675;6,98628;1,74657
412,116;7,12526;1,78132
413,814;7,26097;1,81524
415,255;7,39704;1,84926
416,504;7,52435;1,88109
417,913;7,64729;1,91182
419,354;7,78811;1,94703
420,924;7,9322;1,98305
422,237;8,06645;2,01661
423,454;8,19705;2,04926
424,607;8,3291;2,08228
426,048;8,47393;2,11848
427,393;8,60343;2,15086
428,642;8,73257;2,18314
429,763;8,86864;2,21716
430,852;8,98793;2,24698
432,293;9,13458;2,28364
433,606;9,28269;2,32067
434,823;9,42642;2,3566
435,976;9,55483;2,38871
437,001;9,69163;2,42291
438,058;9,81967;2,45492
439,147;9,93823;2,48456
440,268;10,0586;2,51465
441,421;10,2078;2,55195
442,445;10,3359;2,58397
443,502;10,4635;2,61589
444,559;10,592;2,64799
445,808;10,7222;2,68055
446,513;10,8568;2,7142
447,666;10,9845;2,74612
448,723;11,1012;2,7753
449,779;11,23;2,8075
450,676;11,3577;2,83942
451,605;11,485;2,87125
452,566;11,6159;2,90399
453,687;11,7538;2,93846
454,872;11,8917;2,97293
455,961;12,0267;3,00668
457,049;12,1635;3,04088
458,074;12,3087;3,07718
459,195;12,4459;3,11147
460,156;12,5859;3,14649
461,501;12,7268;3,18169
462,59;12,8833;3,22081
463,519;13,0197;3,25492
464,672;13,1554;3,28885
465,729;13,298;3,32451
466,85;13,4286;3,35716
467,81;13,5596;3,3899
468,835;13,6957;3,42392
469,732;13,8241;3,45602
470,629;13,9456;3,48639
471,718;14,0732;3,51831
472,71;14,2068;3,55169
473,863;14,3443;3,58607
475,048;14,4862;3,62155
476,073;14,6157;3,65392
477,002;14,7397;3,68493
478,059;14,8765;3,71913
478,924;14,9991;3,74977
479,98;15,1286;3,78215
481,069;15,2618;3,81544
482,03;15,3916;3,84791
483,023;15,5178;3,87946
484,016;15,6601;3,91503
485,137;15,7852;3,94631
485,937;15,9093;3,97732
487,154;16,0475;4,01188
488,211;16,1872;4,04681
489,268;16,3292;4,08229
490,357;16,4656;4,1164
491,446;16,5976;4,14941
492,567;16,7436;4,18589
493,784;16,8971;4,22429
494,745;17,027;4,25675
495,641;17,1609;4,29022
496,634;17,278;4,3195
497,531;17,4155;4,35388
498,716;17,5578;4,38945
499,613;17,6818;4,42046
500,701;17,8121;4,45302
501,758;17,9521;4,48804
502,591;18,0864;4,5216
503,744;18,2174;4,55434
504,545;18,3403;4,58507
505,537;18,4632;4,61581
506,466;18,5811;4,64527
507,235;18,7025;4,67564
508,356;18,8375;4,70938
508,932;18,9641;4,74103
510,021;19,0856;4,7714
511,014;19,2162;4,80404
512,039;19,3512;4,83779
512,904;19,4759;4,86898
513,608;19,5886;4,89716
514,793;19,724;4,93099
515,498;19,8593;4,96483
516,587;19,9906;4,99766
517,515;20,1369;5,03423
518,22;20,2621;5,06552
519,405;20,401;5,10026
520,526;20,5532;5,13829
521,23;20,6925;5,17313
522,319;20,8304;5,2076
523,12;20,9745;5,24363
524,017;21,0967;5,27418
524,978;21,2237;5,30592
525,81;21,3681;5,34203
526,643;21,5013;5,37532
527,604;21,6363;5,40906
528,597;21,7785;5,44463
529,365;21,9069;5,47674
530,23;22,0445;5,51112
531,127;22,1787;5,54468
531,863;22,3126;5,57815
532,664;22,4388;5,6097
533,625;22,5734;5,64336
534,201;22,6989;5,67473
535,162;22,835;5,70875
535,867;22,9747;5,74368
536,667;23,1166;5,77915
537,436;23,249;5,81226
538,333;23,3851;5,84628
539,005;23,5201;5,88002
539,934;23,6489;5,91221
540,542;23,7729;5,94322
541,375;23,9141;5,97852
542,08;24,0516;6,0129
542,848;24,1745;6,04363
543,393;24,3124;6,07811
544,29;24,4419;6,11048
544,994;24,5798;6,14496
545,667;24,7057;6,17642
546,403;24,8345;6,20861
547,108;24,9727;6,24318
547,908;25,119;6,27975
548,549;25,2664;6,31659
549,382;25,4101;6,35253
549,894;25,5509;6,38773
550,759;25,6852;6,42129
551,303;25,7997;6,44993
552,04;25,9478;6,48696
552,616;26,0974;6,52435
553,481;26,2466;6,56165
554,058;26,3914;6,59786
554,698;26,5235;6,63087
555,467;26,6555;6,66388
555,979;26,8018;6,70046
556,652;26,9401;6,73502
557,26;27,0969;6,77424
557,805;27,2326;6,80816
558,509;27,3636;6,8409
559,022;27,492;6,87301
559,502;27,6296;6,90739
560,175;27,7733;6,94332
560,783;27,9287;6,98217
561,392;28,0618;7,01546
561,808;28,2037;7,05094
562,416;28,3497;7,08742
563,089;28,4832;7,1208
563,698;28,6346;7,15864
564,146;28,7863;7,19658
564,85;28,9312;7,23279
565,235;29,0749;7,26872
565,683;29,2197;7,30493
566,292;29,3682;7,34205
566,868;29,509;7,37725
567,445;29,6505;7,41263
567,861;29,7932;7,44829
568,117;29,9322;7,48304
568,79;30,0766;7,51916
569,238;30,2145;7,55363
569,719;30,3615;7,59038
570,071;30,4936;7,6234
570,583;30,6366;7,65915
571,192;30,7836;7,6959
571,448;30,9189;7,72974
571,96;31,0656;7,7664
572,345;31,2199;7,80498
572,921;31,372;7,84301
573,145;31,5143;7,87858
573,53;31,6555;7,91387
574,074;31,7897;7,94743
574,266;31,9243;7,98108
574,715;32,0728;8,0182
575,067;32,2238;8,05596
575,483;32,3752;8,09381
575,868;32,5182;8,12956
576,092;32,6751;8,16877
576,572;32,8327;8,20817
577,021;32,9844;8,24611
577,341;33,1242;8,28104
577,661;33,2847;8,32117
577,981;33,4295;8,35737
578,238;33,5645;8,39112
578,59;33,7359;8,43398
579,07;33,8979;8,47447
579,166;34,0347;8,50868
579,551;34,1795;8,54488
579,871;34,3433;8,58583
580,159;34,4878;8,62195
580,191;34,6388;8,6597
580,543;34,7822;8,69554
580,8;34,9503;8,73759
581,088;35,1123;8,77808
581,312;35,2477;8,81191
581,632;35,3994;8,84985
581,696;35,5483;8,88706
581,953;35,6843;8,92108
582,209;35,843;8,96075
582,433;35,9802;8,99504
582,689;36,148;9,037
582,785;36,3012;9,0753
582,945;36,4526;9,11315
583,17;36,6014;9,15036
583,426;36,7641;9,19103
583,586;36,9411;9,23526
583,746;37,0848;9,2712
583,842;37,257;9,31424
584,098;37,4332;9,35829
584,291;37,6006;9,40015
584,387;37,764;9,44101
584,515;37,9424;9,48561
584,643;38,1095;9,52738
584,771;38,2755;9,56887
584,995;38,4517;9,61292
584,995;38,629;9,65725
585,059;38,8092;9,7023
585,283;38,9894;9,74735
585,283;39,1733;9,79332
585,347;39,3641;9,84101
585,379;39,5424;9,88561
585,443;39,7066;9,92665
585,476;39,8737;9,96842
585,443;40,0546;10,0137
585,572;40,2312;10,0578
585,443;40,4344;10,1086
585,379;40,6212;10,1553
585,315;40,8079;10,202
585,251;40,975;10,2438
585,155;41,1694;10,2924
585,155;41,3453;10,3363
584,931;41,5127;10,3782
584,643;41,7283;10,4321
584,355;41,9202;10,4801
584,323;42,1187;10,5297
583,938;42,3076;10,5769
583,266;42,5032;10,6258
582,977;42,7027;10,6757
582,593;42,8968;10,7242
581,953;43,0763;10,7691
581,312;43,2904;10,8226
580,575;43,487;10,8718
579,679;43,6939;10,9235
578,718;43,8839;10,971
577,725;44,0736;11,0184
576,572;44,2535;11,0634
575,451;44,4541;11,1135
574,202;44,6281;11,157
572,857;44,8298;11,2075
570,871;45,0589;11,2647
568,982;45,2716;11,3179
567,22;45,4781;11,3695
564,883;45,7003;11,4251
562,416;45,9388;11,4847
559,854;46,1723;11,5431
556,908;46,4244;11,6061
554,346;46,6309;11,6577
551,72;46,8366;11,7092
548,677;47,0577;11,7644
545,731;47,2711;11,8178
542,656;47,486;11,8715
539,421;47,7034;11,9258
535,642;47,9343;11,9836
531,607;48,1889;12,0472
527,219;48,4366;12,1092
523,152;48,6679;12,167
518,668;48,912;12,228
514,505;49,0808;0,0
509,509;49,2225;0,0
504,641;49,3552;0,0
499,645;49,477;0,0
495,449;49,5819;0,0
490,741;49,6854;0,0
486,994;49,7837;0,0
482,959;49,8876;0,0
478,731;49,9876;0,0
474,152;50,0855;0,0
469,219;50,1911;0,0
464,031;50,2953;0,0
459,035;50,3989;0,0
454,103;50,4985;0,0
448,947;50,5999;0,0
442,958;50,7112;0,0
436,873;50,8186;0,0
431,172;50,9196;0,0
424,959;51,0228;0,0
418,714;51,1256;0,0
412,501;51,2246;0,0
405,295;51,333;0,0
397,929;51,4425;0,0
391,011;51,5453;0,0
383,837;51,6499;0,0
376,695;51,7528;0,0
369,105;51,8584;0,0
361,547;51,9633;0,0
354,02;52,0605;0,0
345,597;52,1669;0,0
337,463;52,2672;0,0
329,36;52,3662;0,0
320,681;52,469;0,0
311,617;52,5732;0,0
302,522;52,676;0,0
292,626;52,7845;0,0
